Báo cáo ngày
…
Báo cáo ngày

Số ca mắc mới theo ngày

x <- inc_dis %>%
  filter(test_date == current_date) %>%
  arrange(desc(n))

x

## # A tibble: 24 x 6
##    res_loc_dis test_date      n    rm  diff reldiff
##    <fct>       <date>     <dbl> <dbl> <dbl>   <dbl>
##  1 BINH CHANH  2021-06-15    10 6.43     10 Inf    
##  2 03          2021-06-15     2 1.71     -1  -0.333
##  3 BINH TAN    2021-06-15     2 9.14     -7  -0.778
##  4 HOC MON     2021-06-15     2 9.71    -11  -0.846
##  5 12          2021-06-15     1 8.86    -32  -0.970
##  6 TAN BINH    2021-06-15     1 3.86      1 Inf    
##  7 TAN PHU     2021-06-15     1 3.43     -1  -0.5  
##  8 01          2021-06-15     0 2.14     -2  -1    
##  9 02          2021-06-15     0 0.571     0  NA    
## 10 04          2021-06-15     0 0.571    -1  -1    
## # … with 14 more rows
…
